﻿{
  "MainPage": "MainPage4",
  "NavigationGroups": [
    {
      "NavigationPages": [
        {
          "Page": "MainPage4",
          "Titles": [
            "WELCOME TO MAS",
            "SELECT AN OPTION"
          ],
          "Messages": [ "Contact security officer for any assistance" ]
        },
        {
          "Page": "PDPAAcknowledgement",
          "Titles": [
            "PDPA ACKNOWLEDGEMENT"
          ],
          "Messages": [
            "By using this kiosk and completing the registration process, you agree that JTC may collect and use your personal data.  JTC is a public agency excluded from Parts III to VI of the Personal Data Protection Act 2012.  We have in place a strict Data Protection Policy on the collection and use of your personal data."
          ]
        },
        {
          "Page": "ScanIdentityCard",
          "Titles": [ "SCAN YOUR IDENTITY CARD" ],
          "Messages": [
            "Align ID card to TOP LEFT",
            "Rescan, align card to TOP LEFT"
          ]
        },
        {
          "Page": "EnterName",
          "Titles": [ "PLEASE ENTER YOUR NAME" ],
          "Messages": [
            "Please enter your name",
            "No activity detected, closing screen in.."
          ],
          "SkipIfHasValue": true
        },
        {
          "Page": "TakePhoto",
          "Titles": [ "POSITION YOUR FACE AND LOOK AT THE CAMERA" ],
          "Messages": [
            "Capturing photo in",
            "Verify if the photo is acceptable"
          ]
        },
        {
          "Page": "FraserVisitSummary",
          "Titles": [ "HELLO [[name]]" ],
          "Messages": [
            "PIN CODE = [[code]]",
            "Printing sticker",
            "Screen closing in",
            "Please standby to copy down PIN CODE",
            "Please copy down the PIN CODE"

          ]
        }
      ]
    },
    {
      "NavigationPages": [
        {
          "Page": "MainPage4",
          "Titles": [
            "WELCOME TO MAS",
            "SELECT AN OPTION"
          ],
          "Messages": [ "Contact security officer for any assistance" ]
        },
        {
          "Page": "PDPAAcknowledgement",
          "Titles": [
            "PDPA ACKNOWLEDGEMENT"
          ],
          "Messages": [
            "By using this kiosk and completing the registration process, you agree that JTC may collect and use your personal data.  JTC is a public agency excluded from Parts III to VI of the Personal Data Protection Act 2012.  We have in place a strict Data Protection Policy on the collection and use of your personal data."
          ]
        },
        {
          "Page": "ScanIdentityCard",
          "Titles": [ "SCAN YOUR IDENTITY CARD" ],
          "Messages": [
            "Align ID card to TOP LEFT",
            "Rescan, align card to TOP LEFT"
          ]
        },
        {
          "Page": "EnterName",
          "Titles": [ "PLEASE ENTER YOUR NAME" ],
          "Messages": [
            "Please enter your name",
            "No activity detected, closing screen in.."
          ],
          "SkipIfHasValue": true
        },
        {
          "Page": "EnterContactNumber",
          "Titles": [ "PLEASE ENTER YOUR CONTACT NUMBER" ],
          "Messages": [
            "Invalid Contact Number",
            "No activity detected, closing screen in.."
          ],
          "SkipIfHasValue": true
        },
        {
          "Page": "SelectLocation",
          "Titles": [ "PLEASE ENTER THE VISITING LEVEL" ],
          "Messages": [
            "Please enter the visiting level",
            "Please enter a valid visiting level",
            "No activity detected, closing screen in.."
          ]
        },
        {
          "Page": "TakePhoto",
          "Titles": [ "POSITION YOUR FACE AND LOOK AT THE CAMERA" ],
          "Messages": [
            "Capturing photo in",
            "Verify if the photo is acceptable"
          ]
        },
        {
          "Page": "FraserVisitSummary",
          "Titles": [ "HELLO [[name]]" ],
          "Messages": [
            "PIN CODE = [[code]]",
            "Printing sticker",
            "Screen closing in",
            "Please standby to copy down PIN CODE",
            "Please copy down the PIN CODE"

          ]
        }
      ]
    },
    {
      "NavigationPages": [
        {
          "Page": "MainPage4",
          "Titles": [
            "WELCOME TO MAS",
            "SELECT AN OPTION"
          ],
          "Messages": [ "Contact security officer for any assistance" ]
        },
        {
          "Page": "TakePhoto",
          "Titles": [ "POSITION YOUR FACE AND LOOK AT THE CAMERA" ],
          "Messages": [
            "Capturing photo in",
            "Verify if the photo is acceptable"
          ]
        },
        {
          "Page": "EnterName",
          "Titles": [ "PLEASE ENTER YOUR NAME" ],
          "Messages": [
            "Please enter your name",
            "No activity detected, closing screen in.."
          ],
          "SkipIfHasValue": true
        },
        {
          "Page": "StaffAttendance",
          "Titles": [ "" ],
          "Messages": [
            ""
          ]
        }
      ]
    },
    {
      "NavigationPages": [
        {
          "Page": "AdminMain",
          "Titles": [
            "ADMIN MODULE",
            "SELECT AN OPTION"
          ],
          "Messages": [
            "No activity detected, screen closing in"
          ],
          "FeaturesEnabled": [
            "Shutdown"
          ]
        }
      ]
    }
  ],

  "GenericMessage": {
    "ErrorPageTitle": "Error",
    "LocationListError": "Unable to start kiosk (error=Unable to retrieve location list)",
    "PassportScannerError": "Unable to start kiosk (Passport scanner error)",
    "LocationConfigError": "Unable to start kiosk (error=Kiosk location is not configured",
    "WebCamError": "Unable to start camera"
  }
}